{
    "meta": {
        "type": "db",
        "canSave": true,
        "canEdit": true,
        "canAdmin": true,
        "canStar": true,
        "slug": "static-limits",
        "url": "/d/h-ndhK7Mz/static-limits",
        "expires": "0001-01-01T00:00:00Z",
        "created": "2020-10-23T12:04:42Z",
        "updated": "2020-10-23T12:04:42Z",
        "updatedBy": "admin",
        "createdBy": "admin",
        "version": 1,
        "hasAcl": false,
        "isFolder": false,
        "folderId": 0,
        "folderTitle": "General",
        "folderUrl": "",
        "provisioned": false,
        "provisionedExternalId": ""
    },
    "dashboard": {
        "annotations": {
            "list": [
                {
                    "builtIn": 1,
                    "datasource": "-- Grafana --",
                    "enable": true,
                    "hide": true,
                    "iconColor": "rgba(0, 211, 255, 1)",
                    "name": "Annotations & Alerts",
                    "type": "dashboard"
                }
            ]
        },
        "editable": true,
        "gnetId": null,
        "graphTooltip": 0,
        "id": 12,
        "iteration": 1603446683859,
        "links": [],
        "panels": [
            {
                "datasource": null,
                "fieldConfig": {
                    "defaults": {
                        "custom": {},
                        "mappings": [],
                        "max": 1024,
                        "min": 0,
                        "thresholds": {
                            "mode": "percentage",
                            "steps": [
                                {
                                    "color": "green",
                                    "value": null
                                },
                                {
                                    "color": "#EAB839",
                                    "value": 80
                                },
                                {
                                    "color": "red",
                                    "value": 100
                                }
                            ]
                        }
                    },
                    "overrides": []
                },
                "gridPos": {
                    "h": 8,
                    "w": 12,
                    "x": 0,
                    "y": 0
                },
                "id": 14,
                "options": {
                    "displayMode": "lcd",
                    "orientation": "horizontal",
                    "reduceOptions": {
                        "calcs": [
                            "mean"
                        ],
                        "values": false
                    },
                    "showUnfilled": true
                },
                "pluginVersion": "7.0.0",
                "targets": [
                    {
                        "format": "table",
                        "group": [],
                        "metricColumn": "none",
                        "rawQuery": true,
                        "rawSql": "SELECT COUNT(DISTINCT(pe.value)) 'VRF Lightweight'\nFROM PROPERTY_EXTENDED pe\nLEFT JOIN PROPERTY_EXTENDED pe2\n\tON pe.apn_id = pe2.apn_id\nWHERE pe.category = 'network_context' AND pe.property = 'network_context'\n\tAND pe2.property = 'vrf_lightweight'\n\tAND pe2.value = 'true'\nAND pe.apn_id IN (SELECT a.id \n\t\t\t\tFROM APN a WHERE a.device_id IN (SELECT d.id FROM DEVICE d WHERE d.hostname = '$device'))",
                        "refId": "A",
                        "select": [
                            [
                                {
                                    "params": [
                                        "id"
                                    ],
                                    "type": "column"
                                }
                            ]
                        ],
                        "table": "APN_HISTORY",
                        "timeColumn": "config_date",
                        "timeColumnType": "timestamp",
                        "where": [
                            {
                                "name": "$__timeFilter",
                                "params": [],
                                "type": "macro"
                            }
                        ]
                    }
                ],
                "timeFrom": null,
                "timeShift": null,
                "title": "VRF Lightweight",
                "type": "bargauge"
            },
            {
                "datasource": null,
                "fieldConfig": {
                    "defaults": {
                        "custom": {},
                        "mappings": [],
                        "max": 128,
                        "min": 0,
                        "thresholds": {
                            "mode": "percentage",
                            "steps": [
                                {
                                    "color": "green",
                                    "value": null
                                },
                                {
                                    "color": "#EAB839",
                                    "value": 79.9999
                                },
                                {
                                    "color": "red",
                                    "value": 100
                                }
                            ]
                        }
                    },
                    "overrides": []
                },
                "gridPos": {
                    "h": 8,
                    "w": 12,
                    "x": 12,
                    "y": 0
                },
                "id": 12,
                "options": {
                    "displayMode": "lcd",
                    "orientation": "horizontal",
                    "reduceOptions": {
                        "calcs": [
                            "mean"
                        ],
                        "values": false
                    },
                    "showUnfilled": true
                },
                "pluginVersion": "7.0.0",
                "targets": [
                    {
                        "format": "table",
                        "group": [],
                        "metricColumn": "none",
                        "rawQuery": true,
                        "rawSql": "SELECT COUNT(DISTINCT(pe.value)) 'VRF Lightweight'\nFROM PROPERTY_EXTENDED pe\nLEFT JOIN PROPERTY_EXTENDED pe2\n\tON pe.apn_id = pe2.apn_id\nWHERE pe.category = 'network_context' AND pe.property = 'network_context'\n\tAND pe2.property = 'vrf_lightweight'\n\tAND pe2.value = 'false'\nAND pe.apn_id IN (SELECT a.id \n\t\t\t\tFROM APN a WHERE a.device_id IN (SELECT d.id FROM DEVICE d WHERE d.hostname = '$device'))",
                        "refId": "A",
                        "select": [
                            [
                                {
                                    "params": [
                                        "id"
                                    ],
                                    "type": "column"
                                }
                            ]
                        ],
                        "table": "APN_HISTORY",
                        "timeColumn": "config_date",
                        "timeColumnType": "timestamp",
                        "where": [
                            {
                                "name": "$__timeFilter",
                                "params": [],
                                "type": "macro"
                            }
                        ]
                    }
                ],
                "timeFrom": null,
                "timeShift": null,
                "title": "Heavy VRF",
                "type": "bargauge"
            },
            {
                "datasource": null,
                "fieldConfig": {
                    "defaults": {
                        "custom": {
                            "align": null
                        },
                        "mappings": [],
                        "max": 4096,
                        "thresholds": {
                            "mode": "percentage",
                            "steps": [
                                {
                                    "color": "green",
                                    "value": null
                                },
                                {
                                    "color": "#EAB839",
                                    "value": 80
                                },
                                {
                                    "color": "red",
                                    "value": 100
                                }
                            ]
                        }
                    },
                    "overrides": []
                },
                "gridPos": {
                    "h": 8,
                    "w": 12,
                    "x": 0,
                    "y": 8
                },
                "id": 4,
                "options": {
                    "orientation": "auto",
                    "reduceOptions": {
                        "calcs": [
                            "mean"
                        ],
                        "limit": 0,
                        "values": true
                    },
                    "showThresholdLabels": false,
                    "showThresholdMarkers": true
                },
                "pluginVersion": "7.0.0",
                "targets": [
                    {
                        "format": "table",
                        "group": [],
                        "metricColumn": "none",
                        "rawQuery": true,
                        "rawSql": "SELECT COUNT(DISTINCT(pe.value)) AS $device\nFROM PROPERTY_EXTENDED pe\nWHERE pe.property = 'services_quality_of_service_qos_flow'\nAND apn_id IN (SELECT a.id \n\t\t\t\tFROM APN a \n\t\t\t\tWHERE a.device_id IN (SELECT d.id FROM DEVICE d WHERE d.hostname = '$device'))\n;",
                        "refId": "A",
                        "select": [
                            [
                                {
                                    "params": [
                                        "id"
                                    ],
                                    "type": "column"
                                }
                            ]
                        ],
                        "table": "APN_HISTORY",
                        "timeColumn": "last_update",
                        "timeColumnType": "timestamp",
                        "where": [
                            {
                                "name": "$__timeFilter",
                                "params": [],
                                "type": "macro"
                            }
                        ]
                    }
                ],
                "timeFrom": null,
                "timeShift": null,
                "title": "QoS Flow at $device",
                "type": "gauge"
            },
            {
                "datasource": null,
                "fieldConfig": {
                    "defaults": {
                        "custom": {
                            "align": null
                        },
                        "mappings": [],
                        "max": 4095,
                        "min": 2,
                        "thresholds": {
                            "mode": "percentage",
                            "steps": [
                                {
                                    "color": "green",
                                    "value": null
                                },
                                {
                                    "color": "#EAB839",
                                    "value": 80
                                },
                                {
                                    "color": "red",
                                    "value": 100
                                }
                            ]
                        }
                    },
                    "overrides": []
                },
                "gridPos": {
                    "h": 8,
                    "w": 12,
                    "x": 12,
                    "y": 8
                },
                "id": 2,
                "options": {
                    "colorMode": "background",
                    "graphMode": "area",
                    "justifyMode": "center",
                    "orientation": "auto",
                    "reduceOptions": {
                        "calcs": [
                            "mean"
                        ],
                        "values": true
                    }
                },
                "pluginVersion": "7.0.0",
                "targets": [
                    {
                        "format": "table",
                        "group": [],
                        "metricColumn": "none",
                        "rawQuery": true,
                        "rawSql": "SELECT\nCOUNT(DISTINCT(pe.value)) AS $device\n\t-- count(pe.value) AS 'MCC13'\n\t-- pe.apn_id, count(*) 'Count'\nFROM PROPERTY_EXTENDED pe\n\nWHERE pe.property = 'services_quality_of_service_qos_policy'\n-- AND pe.value LIKE '%cmi.iot%'\nAND apn_id IN (SELECT a.id \n\t\t\t\tFROM APN a  WHERE a.device_id IN (SELECT d.id FROM DEVICE d WHERE d.hostname = '$device')\n\t\t\t   )\n;",
                        "refId": "A",
                        "select": [
                            [
                                {
                                    "params": [
                                        "id"
                                    ],
                                    "type": "column"
                                }
                            ]
                        ],
                        "table": "APN_HISTORY",
                        "timeColumn": "last_update",
                        "timeColumnType": "timestamp",
                        "where": [
                            {
                                "name": "$__timeFilter",
                                "params": [],
                                "type": "macro"
                            }
                        ]
                    }
                ],
                "timeFrom": null,
                "timeShift": null,
                "title": "Service QoS-Policy at $device",
                "type": "stat"
            },
            {
                "bgColor": null,
                "datasource": null,
                "fieldConfig": {
                    "defaults": {
                        "custom": {
                            "align": null
                        },
                        "mappings": [],
                        "thresholds": {
                            "mode": "absolute",
                            "steps": [
                                {
                                    "color": "green",
                                    "value": null
                                },
                                {
                                    "color": "red",
                                    "value": 80
                                }
                            ]
                        }
                    },
                    "overrides": []
                },
                "gridPos": {
                    "h": 8,
                    "w": 12,
                    "x": 0,
                    "y": 16
                },
                "id": 8,
                "pluginVersion": "7.0.0",
                "targets": [
                    {
                        "format": "table",
                        "group": [],
                        "metricColumn": "none",
                        "rawQuery": true,
                        "rawSql": "SELECT '$device', COUNT(DISTINCT(pe.value)) 'Packet Filter'\nFROM PROPERTY_EXTENDED pe\nWHERE pe.property = 'service_construct_packet_filter'\nAND pe.apn_id IN (SELECT a.id \n\t\t\t\tFROM APN a WHERE a.device_id IN (SELECT d.id FROM DEVICE d WHERE d.hostname = '$device'))\n;",
                        "refId": "A",
                        "select": [
                            [
                                {
                                    "params": [
                                        "id"
                                    ],
                                    "type": "column"
                                }
                            ]
                        ],
                        "table": "APN_HISTORY",
                        "timeColumn": "last_update",
                        "timeColumnType": "timestamp",
                        "where": [
                            {
                                "name": "$__timeFilter",
                                "params": [],
                                "type": "macro"
                            }
                        ]
                    }
                ],
                "timeFrom": null,
                "timeShift": null,
                "title": "Packet Filter",
                "trafficLightSettings": {
                    "digits": 0,
                    "fontColor": "black",
                    "fontSize": "12px",
                    "greenThreshold": 3270,
                    "invertScale": true,
                    "lightsPerLine": 5,
                    "linkTargetBlank": false,
                    "linkTooltip": "",
                    "linkUrl": "",
                    "max": 100,
                    "redThreshold": 4096,
                    "renderLink": false,
                    "showTrend": true,
                    "showValue": true,
                    "sortLights": false,
                    "spreadControls": true,
                    "units": "",
                    "width": 50
                },
                "type": "snuids-trafficlights-panel"
            },
            {
                "datasource": null,
                "fieldConfig": {
                    "defaults": {
                        "custom": {
                            "align": "center",
                            "displayMode": "color-background"
                        },
                        "mappings": [],
                        "max": 1536,
                        "thresholds": {
                            "mode": "percentage",
                            "steps": [
                                {
                                    "color": "green",
                                    "value": null
                                },
                                {
                                    "color": "#EAB839",
                                    "value": 80
                                },
                                {
                                    "color": "red",
                                    "value": 100
                                }
                            ]
                        }
                    },
                    "overrides": [
                        {
                            "matcher": {
                                "id": "byName",
                                "options": "No. Packet-Filter"
                            },
                            "properties": [
                                {
                                    "id": "custom.width",
                                    "value": 216
                                }
                            ]
                        }
                    ]
                },
                "gridPos": {
                    "h": 8,
                    "w": 12,
                    "x": 12,
                    "y": 16
                },
                "id": 10,
                "options": {
                    "frameIndex": 2,
                    "showHeader": true
                },
                "pluginVersion": "7.0.0",
                "targets": [
                    {
                        "format": "table",
                        "group": [],
                        "metricColumn": "none",
                        "rawQuery": true,
                        "rawSql": "SELECT DISTINCT(pe.value) 'Service Rule $device',\n\tCOUNT(pe2.value) 'No. Packet-Filter'\nFROM PROPERTY_EXTENDED pe\nLEFT JOIN PROPERTY_EXTENDED pe2\n\tON pe.apn_id = pe2.apn_id\nWHERE pe.property = 'service_construct_service_rule'\n\tAND pe2.property = 'service_construct_packet_filter'\n\tAND pe2.dependency_id = pe.category_id\nAND pe.apn_id IN (SELECT a.id \n\t\t\t\tFROM APN a WHERE a.device_id IN (SELECT d.id FROM DEVICE d WHERE d.hostname = '$device')\n\t\t\t   )\nGROUP BY pe.value\nORDER BY pe.value, COUNT(pe2.value) DESC\n;",
                        "refId": "A",
                        "select": [
                            [
                                {
                                    "params": [
                                        "id"
                                    ],
                                    "type": "column"
                                }
                            ]
                        ],
                        "table": "APN_HISTORY",
                        "timeColumn": "last_update",
                        "timeColumnType": "timestamp",
                        "where": [
                            {
                                "name": "$__timeFilter",
                                "params": [],
                                "type": "macro"
                            }
                        ]
                    }
                ],
                "timeFrom": null,
                "timeShift": null,
                "title": "Packet filter per Service rule at $device",
                "type": "table"
            }
        ],
        "refresh": false,
        "schemaVersion": 25,
        "style": "dark",
        "tags": [],
        "templating": {
            "list": [
                {
                    "allValue": null,
                    "current": {
                        "selected": false,
                        "text": "AMGGSN2",
                        "value": "AMGGSN2"
                    },
                    "datasource": "MySQL_iot",
                    "definition": "select hostname from DEVICE;",
                    "hide": 0,
                    "includeAll": false,
                    "label": null,
                    "multi": false,
                    "name": "device",
                    "options": [],
                    "query": "select hostname from DEVICE;",
                    "refresh": 1,
                    "regex": "",
                    "skipUrlSync": false,
                    "sort": 1,
                    "tagValuesQuery": "",
                    "tags": [],
                    "tagsQuery": "",
                    "type": "query",
                    "useTags": false
                }
            ]
        },
        "time": {
            "from": "now-6h",
            "to": "now"
        },
        "timepicker": {
            "refresh_intervals": [
                "10s",
                "30s",
                "1m",
                "5m",
                "15m",
                "30m",
                "1h",
                "2h",
                "1d"
            ]
        },
        "timezone": "",
        "title": "Static limits",
        "uid": "h-ndhK7Mz",
        "version": 1
    }
}
