[
    {
        "id": 1,
        "orgId": 1,
        "name": "MySQL_iot",
        "type": "mysql",
        "typeLogoUrl": "public/app/plugins/datasource/mysql/img/mysql_logo.svg",
        "access": "proxy",
        "url": "172.19.0.5:3306",
        "password": "",
        "user": "root",
        "database": "iot",
        "basicAuth": false,
        "isDefault": true,
        "jsonData": {
            "tlsSkipVerify": true
        },
        "readOnly": false
    },
    {
        "id": 4,
        "orgId": 1,
        "name": "Prometheus",
        "type": "prometheus",
        "typeLogoUrl": "public/app/plugins/datasource/prometheus/img/prometheus_logo.svg",
        "access": "proxy",
        "url": "172.19.0.10:9090",
        "password": "",
        "user": "",
        "database": "",
        "basicAuth": false,
        "isDefault": false,
        "jsonData": {},
        "readOnly": false
    },
    {
        "id": 5,
        "orgId": 1,
        "name": "SimpleJson_test",
        "type": "grafana-simple-json-datasource",
        "typeLogoUrl": "public/plugins/grafana-simple-json-datasource/img/simpleJson_logo.svg",
        "access": "proxy",
        "url": "http://172.19.0.11:8086",
        "password": "",
        "user": "",
        "database": "",
        "basicAuth": false,
        "isDefault": false,
        "jsonData": {
            "httpHeaderName1": ""
        },
        "readOnly": false
    },
    {
        "id": 6,
        "orgId": 1,
        "name": "static_limit_subpool_test",
        "type": "grafana-simple-json-datasource",
        "typeLogoUrl": "public/plugins/grafana-simple-json-datasource/img/simpleJson_logo.svg",
        "access": "proxy",
        "url": "http://172.19.0.4:5000/static_limits/subpools",
        "password": "",
        "user": "",
        "database": "",
        "basicAuth": false,
        "isDefault": false,
        "jsonData": {},
        "readOnly": false
    },
]
